# malaytextr 0.1.3

1. Added more Malay root words:

``` r
malayrootwords

# A tibble: 4,365 x 2
   `Col Word` `Root Word`
   <chr>      <chr>      
 1 ad         ada        
 2 ak         aku        
 3 akn        akan       
 4 ank        anak       
 5 ap         apa        
 6 awl        awal       
 7 bg         bagi       
 8 bkn        bukan      
 9 blm        belum      
10 bnjr       banjir     
# ... with 4,355 more rows
```

5. Added more sentiment words:

``` r
sentiment_general
# A tibble: 1,428 × 2
   Word      Sentiment
   <chr>     <chr>    
 1 aduan     Negative 
 2 agresif   Negative 
 3 amaran    Negative 
 4 anarki    Negative 
 5 ancaman   Negative 
 6 aneh      Negative 
 7 antagonis Negative 
 8 anti      Negative 
 9 azab      Negative 
10 babi      Negative 
# … with 1,418 more rows
```
