…
``` r
# install.packages("devtools")
devtools::install_github("zahiernasrudin/malaytextr")
```

## Examples

### Malay root words

There is a data frame of Malay root words that can be used as a dictionary:

``` r
malayrootwords

# A tibble: 4,310 × 2
   `Col Word`  `Root Word`
   <chr>       <chr>      
 1 pengabadian abadi      
 2 pengabdian  abdi       
 3 pengacaraan acara      
 4 pengadangan adang      
 5 pengadilan  adil       
 6 pengairan   air        
 7 pengakaran  akar       
 8 pengaktifan aktif      
 9 pengalaman  alam       
10 pengaman    aman       
# … with 4,300 more rows
```
…
``` r
x <- c("test https://t.co/fkQC2dXwnc", "another one https://www.google.com/ to try")

remove_url(x)

[1] "test "               "another one  to try"
```

### Malay stop words

There is a data frame of Malay stop words:

``` r
malaystopwords
# A tibble: 512 x 1
   stopwords
   <chr>    
 1 ada      
 2 sampai   
 3 sana     
 4 itu      
 5 sangat   
 6 saya     
 7 jadi     
 8 se       
 9 agak     
10 jangan   
# ... with 502 more rows
```

### Sentiment words

This lexicon includes words that have been labelled as positive or negative:

``` r
sentiment_general
# A tibble: 1,428 × 2
   Word      Sentiment
   <chr>     <chr>    
 1 aduan     Negative 
 2 agresif   Negative 
 3 amaran    Negative 
 4 anarki    Negative 
 5 ancaman   Negative 
 6 aneh      Negative 
 7 antagonis Negative 
 8 anti      Negative 
 9 azab      Negative 
10 babi      Negative 
# … with 1,418 more rows
```


### Normalized words

Aims to provide a standardized version of Malay words. It is designed to standardize words that have multiple variations/spellings

```r

normalized
# A tibble: 153 × 2
   `Col Word` `Normalized Word`
   <chr>      <chr>            
 1 ad         ada              
 2 ak         aku              
 3 akn        akan             
 4 ank        anak             
 5 ap         apa              
 6 awl        awal             
 7 bg         bagi             
 8 bkn        bukan            
 9 blm        belum            
10 bnjr       banjir           
# … with 143 more rows

```

### Malaysia Politic Tweets Sentiment Dataset (Development Version)

A collection of tweets related to Malaysian politics. Can be used for various tasks such as political sentiment analysis

```r

malaysia_politic_sentiment
# A tibble: 71 × 3
      id text                                                                                      sentiment
   <dbl> <chr>                                                                                     <chr>    
 1    21 "@azrulazimi @AbdMydin Lets gooo PH💪\n\n#KitaBoleh \n#PakatanHarapan"                    Positive 
 2    39 "Catatan Duha\nJangan bekerja secara solo, natijahnya tidak akan memberi impak yang ting… Negative 
 3    19 "@anwaribrahim saya pengundi PH P.107 sebelum ini akan menolak calon yg PH meletak di Su… Negative 
 4    65 "Sy sokong tanpa bangkang. Memang Anwar \"Calon PM\" terbaik. Dan dia sudah buktikan sel… Positive 
 5    58 "Peluncuran Tawaran Anak Muda Harapan oleh Angkatan Muda HARAPAN telah berlangsung pada … Neutral  
 6    63 "Rakyat pilih DSAI sbgai PM. Ayuh Malaysia pastikan calon PH menang di semua Parlimen. #… Positive 
 7    48 "Keep fit🔥🔥🔥\n\n#KitaBoleh \n#PRU15 \n#PakatanHarapan \n#P148AyerHitam https://t.co/g… Positive 
 8    50 "List of Perikatan Nasional GE15 candidates \nhttps://t.co/ngscrveeIm \n\n#theSun #thesu… Neutral  
 9    57 "Pas youth claims his party is full of intergrity compared to Barisan Nasional (BN) and … Positive 
10     8 "@IsmailSabri60 Thank You Sir for promoting #PakatanHarapan #Menang #PKR_MENANG \ndi Ber… Positive 
# ℹ 61 more rows
# ℹ Use `print(n = ...)` to see more rows
…
